{
  "images" : [
    {
      "idiom" : "iphone",
      "filename" : "003-round-done-button.png",
      "scale" : "1x"
    },
    {
      "idiom" : "iphone",
      "filename" : "003-round-done-button-1.png",
      "scale" : "2x"
    },
    {
      "idiom" : "iphone",
      "filename" : "003-round-done-button-2.png",
      "scale" : "3x"
    }
  ],
  "info" : {
    "version" : 1,
    "author" : "xcode"
  }
}